{
  "project_info": {
    "project_number": "984034560827",
    "firebase_url": "https://unibudget-2e04a.firebaseio.com",
    "project_id": "unibudget-2e04a",
    "storage_bucket": "unibudget-2e04a.appspot.com"
  },
  "client": [
    {
      "client_info": {
        "mobilesdk_app_id": "1:984034560827:android:c03cc58a12196db13d451e",
        "android_client_info": {
          "package_name": "com.ftsm.tm4086.a162021.unibudget"
        }
      },
      "oauth_client": [
        {
          "client_id": "984034560827-t9tv7l2l1rtc60kt9f49234ofc1vqd37.apps.googleusercontent.com",
          "client_type": 3
        }
      ],
      "api_key": [
        {
          "current_key": "AIzaSyCH42qh5bQ42MEEXUpVVr_uEMHQHws_Dxs"
        }
      ],
      "services": {
        "appinvite_service": {
          "other_platform_oauth_client": [
            {
              "client_id": "984034560827-t9tv7l2l1rtc60kt9f49234ofc1vqd37.apps.googleusercontent.com",
              "client_type": 3
            }
          ]
        }
      }
    }
  ],
  "configuration_version": "1"
}